 [
  {
        "header" : "Picture - Voice note",
        "key" : "pictureAndVoiceMemo",
        "cell" : "LCFormButtonPickerCell"
  },
  {
		"cell" : "FXFormOptionSegmentsCell",
		"header" : "Kind",
		"key" : "kind",
		"options" :         [
                             "Company"
                             ],
		"placeholder" : "Person",
		"title" : ""
  },
  {
		"header" : "Account",
		"key" : "nameSurname",
		"textField.autocapitalizationType" : 1
  },
  {
		"key" : "email"
  },
  {
		"key" : "webSite",
		"type" : "text",
        "textField.autocapitalizationType" : 0
  },
  {
		"key" : "phoneNumber",
		"type" : "phone"
  },
  {
        "header" : "Company Details",
		"key" : "companyName",
		"type" : "text",
		"textField.autocapitalizationType" : 1
  },
  {
		"key" : "employeesNumber",
		"type" : "number"
  },
  {
		"header" : "Lead Details",
		"key" : "jobPosition",
		"textField.autocapitalizationType" : 1
  },
  {
		"key" : "gender",
		"options" :         [
                             "Male",
                             "Female",
                             ],
		"placeholder" : "Unspecified"
  },
  {
		"key" : "dateOfBirth",
		"type" : "text"
  },
  {
		"key" : "country",
		"options" :         [
                             "it",
                             "us",
                             "ca",
                             "gb",
                             "sa",
                             "be"
                             ],
		"placeholder" : "None",
		"valueTransformer" : "ISO3166CountryValueTransformer"
  },
  {
		"key" : "language",
		"options" :         [
                             "Italian",
                             "English",
                             "Spanish",
                             "French",
                             "Dutch"
                             ],
		"placeholder" : "None"
  },
  {
		"key" : "interests",
		"options" :         [
                             "Our core business",
                             "Job Position",
                             "Web Site",
                             "Marketing",
                             "Domotics",
                             "Shopping",
                             "Other"
                             ],
		"placeholder" : "None"
  },
  {
		"key" : "additionalNotes",
		"type" : "longtext"
  }
  ]